#id;nbpoint;(speed1;speed2;x;y;z;time(ms))
#
# Speed1 : Speed of the boat
# Speed2 : rotation speed of the boat
# time   : -  > 0:  if the boat has reached the point before the time is spent, the boat wait !
#                   else if the time is spent and the boat has not reached the point, server will pass to the next point
#          -  < 0:  lets server calculate when the boat reachs the point (/!\ don't use time < 0 when you do a rotation with the boat.)

#From Talkin To Gludin 
1;11;180;800;-121385;261660;-3610;-12;200;800;-127694;253312;-3610;55500;250;800;-129274;237060;-3610;65300;200;800;-114688;139040;-3610;495900;180;800;-109663;135704;-3610;-8;180;800;-102151;135704;-3610;-7;180;800;-96686;140595;-3610;-6;180;800;-95686;147718;-3610;-5;180;800;-95686;148718;-3610;-4;150;800;-95686;149718;-3610;-3;150;800;-95686;150514;-3610;-2; 
 
#From Gludin To Talkin 
2;10;180;800;-95686;155514;-3610;-12;250;800;-95686;185514;-3610;111800;200;800;-60136;238816;-3610;330200;180;1800;-60520;259609;-3610;115800;180;1800;-65344;261460;-3610;-8;180;1800;-83344;261560;-3610;-7;180;1800;-88344;261660;-3610;-6;150;1800;-92344;261660;-3610;-5;150;1800;-95622;261660;-3610;-4;150;1800;-96622;261660;-3610;-3;

#From Giran To Talkin 
3;17;150;800;51914;189023;-3610;-18;200;800;60567;189789;-3610;44200;250;800;63732;197457;-3610;33600;250;800;63732;207457;-3610;40500;250;800;60434;219306;-3610;49900;300;800;56115;225303;-3610;24700;300;800;41634;226047;-3610;51900;300;800;27153;226791;-3610;50100;300;800;12672;227535;-3610;49400;300;800;-1808;228280;-3610;49800;300;800;-22165;231742;-3610;69400;250;800;-42523;235205;-3610;83200;200;800;-68451;259960;-3610;178700;180;800;-83344;261610;-3610;-5;180;800;-88344;261660;-3610;-4;150;800;-92344;261660;-3610;-3;150;1800;-96622;261660;-3610;-1;

#From Talkin To Giran 
4;17;180;800;-113925;261660;-3610;-18;180;800;-126107;249116;-3610;-17;180;800;-126107;234499;-3610;-16;180;800;-126107;219882;-3610;-15;180;800;-109414;204914;-3610;-14;250;800;-92807;204914;-3610;68400;250;800;-80425;216450;-3610;69300;250;800;-68043;227987;-3610;67900;200;800;-60844;231369;-3610;39200;200;800;-44915;231369;-3610;80800;200;800;-28986;231369;-3610;81900;180;800;8233;207624;-3610;-7;180;800;21470;201503;-3610;-6;150;800;40058;195383;-3610;-5;150;800;43022;193793;-3610;-4;150;800;45986;192203;-3610;-3;150;1800;48950;190613;-3610;-1;

#From Gludin to Rune
5;14;150;800;-95686;155514;-3610;-1;150;800;-97727;160575;-3610;-1;180;800;-108048;158380;-3610;-1;300;800;-107964;91102;-3610;-1;300;800;-66492;47880;-3610;-1;250;800;-56257;40932;-3610;-1;300;800;-33367;16345;-3610;-1;250;800;-27195;1065;-3610;-1;250;800;34000;1065;-3610;-1;180;800;44914;-25021;-3610;-1;180;800;43496;-27864;-3610;-1;150;800;39077;-32922;-3610;-1;150;800;36650;-35468;-3610;-1;150;800;34400;-37670;-3610;-1;

#From Rune to Gludin
6;13;150;800;31622;-40501;-3610;-1;150;800;2493;-29776;-3610;-1;150;800;-13722;3629;-3610;421823;180;800;-28875;15029;-3610;105347;200;800;-33367;16345;-3610;23404;250;800;-56257;40932;-3610;134371;250;800;-66492;47880;-3610;49482;300;800;-107964;91102;-3610;199668;300;800;-107531;126510;-3610;118035;300;1800;-96686;140595;-3610;59255;250;1800;-95686;147718;-3610;28771;150;1800;-95686;148718;-3610;-1;150;1800;-95686;149718;-3610;-1;150;1800;-95686;150500;-3610;-1;

#Innandril tour
7;32;150;800;105129;226240;-3610;-1;150;800;90604;238797;-3610;128002;150;800;74853;237943;-3610;105161;150;800;68207;235399;-3610;47442;150;800;63226;230487;-3610;46637;150;800;61843;224797;-3610;39038;150;800;61822;203066;-3610;144873;150;800;59051;197685;-3610;40350;150;800;54048;195298;-3610;36955;150;800;41609;195687;-3610;82967;150;800;35821;200284;-3610;49276;150;800;35567;205265;-3610;33250;150;800;35617;222471;-3610;114707;150;800;37932;226588;-3610;31488;150;800;42932;229394;-3610;38224;150;800;74324;245231;-3610;234404;150;800;81872;250314;-3610;60666;150;800;101692;249882;-3610;132165;150;800;107907;256073;-3610;58483;150;800;112317;257133;-3610;30237;150;800;126273;255313;-3610;93828;150;800;128067;250961;-3610;31382;150;800;128520;238249;-3610;84800;150;800;126428;235072;-3610;25359;150;800;121843;234656;-3610;30692;150;800;120096;234268;-3610;11930;150;800;118572;233046;-3610;13023;150;800;117671;228951;-3610;27953;150;800;115936;226540;-3610;-1;150;800;113628;226240;-3610;-1;150;800;111300;226240;-3610;-1;150;800;111264;226240;-3610;-1;

#Rune to Pimeval
8;10;180;1800;40500;-35767;-3610;-1;200;1800;42200;-33000;-3610;-1;250;1800;40439;-30475;-3610;-1;300;1800;34439;-29475;-3610;-1;300;1800;20439;-33475;-3610;-1;300;1800;11963;-33475;-3610;-1;250;1800;8063;-32580;-3610;-1;180;1800;5063;-29700;-3610;-1;180;1800;8063;-27276;-3610;-1;180;1800;10363;-27276;-3610;-1;

#Pimeval to Rune
9;7;180;1800;11800;-27276;-3610;-1;200;1800;13800;-28300;-3610;-1;250;1800;15700;-29700;-3610;-1;250;1800;25300;-35700;-3610;-1;200;1800;28300;-36000;-3610;-1;180;1800;31300;-35767;-3610;-1;180;1800;37890;-35765;-3610;-1;